[
  {
    "norad_id": "41460",
    "name": "AAUSAT 4",
    "decoder": "Aausat4",
    "normalizer": "Aausat4"
  },
  {
    "norad_id": "44369",
    "name": "ACRUX-1",
    "decoder": "Acrux1",
    "normalizer": "Acrux1"
  },
  {
    "norad_id": "46287",
    "name": "AmicalSat",
    "decoder": "amicalsat",
    "normalizer": "AmicalSat"
  },
  {
    "norad_id": "44352",
    "name": "ARMADILLO",
    "decoder": "Armadillo",
    "normalizer": "Armadillo"
  },
  {
    "norad_id": "40968",
    "name": "BISONSAT",
    "decoder": "Bisonsat",
    "normalizer": "Bisonsat"
  },
  {
    "norad_id": "46922",
    "name": "BOBCAT-1",
    "decoder": "bobcat1",
    "normalizer": "Bobcat1"
  },
  {
    "norad_id": "40014",
    "name": "BUGSAT-1",
    "decoder": "Bugsat1",
    "normalizer": "Bugsat1"
  },
  {
    "norad_id": "42759",
    "name": "CAS-4B",
    "decoder": "Cas4",
    "normalizer": "Cas4"
  },
  {
    "norad_id": "42761",
    "name": "CAS-4A",
    "decoder": "Cas4",
    "normalizer": "Cas4"
  },
  {
    "norad_id": "43855",
    "name": "CHOMPTT",
    "decoder": "Chomptt",
    "normalizer": "Chomptt"
  },
  {
    "norad_id": "43666",
    "name": "CubeBel-1",
    "decoder": "Cubebel1",
    "normalizer": "Cubebel1"
  },
  {
    "norad_id": "99999",
    "name": "CubeSatSim",
    "decoder": "Cubesatsim",
    "normalizer": "Cubesatsim"
  },
  {
    "norad_id": "43793",
    "name": "CSIM-FD",
    "decoder": "Csim",
    "normalizer": "Csim"
  },
  {
    "norad_id": "43616",
    "name": "ELFIN-B",
    "decoder": "Elfin",
    "normalizer": "Elfin"
  },
  {
    "norad_id": "43617",
    "name": "ELFIN-A",
    "decoder": "Elfin",
    "normalizer": "Elfin"
  },
  {
    "norad_id": "44431",
    "name": "EntrySat",
    "decoder": "Entrysat",
    "normalizer": "Entrysat"
  },
  {
    "norad_id": "43700",
    "name": "QO-100",
    "decoder": "Eshail2",
    "normalizer": "Eshail2"
  },
  {
    "norad_id": "43552",
    "name": "EQUiSat",
    "decoder": "Equisat",
    "normalizer": "Equisat"
  },
  {
    "norad_id": "40967",
    "name": "FOX-1A",
    "decoder": "Fox",
    "normalizer": "Fox"
  },
  {
    "norad_id": "43017",
    "name": "FOX-1B",
    "decoder": "Fox",
    "normalizer": "Fox"
  },
  {
    "norad_id": "43770",
    "name": "FOX-1C",
    "decoder": "Fox",
    "normalizer": "Fox"
  },
  {
    "norad_id": "43137",
    "name": "FOX-1D",
    "decoder": "Fox",
    "normalizer": "Fox"
  },
  {
    "norad_id": "40379",
    "name": "GRIFEX",
    "decoder": "mxl",
    "normalizer": "Grifex"
  },
  {
    "norad_id": "43468",
    "name": "IRAZU",
    "decoder": "Irazu",
    "normalizer": "Irazu"
  },
  {
    "norad_id": "43693",
    "name": "IRVINE-01",
    "decoder": "Irvine",
    "normalizer": "Irvine"
  },
  {
    "norad_id": "99915",
    "name": "IRVINE-02",
    "decoder": "Irvine",
    "normalizer": "Irvine"
  },
  {
    "norad_id": "44420",
    "name": "LightSail-2",
    "decoder": "Lightsail2",
    "normalizer": "Lightsail2"
  },
  {
    "norad_id": "41474",
    "name": "MINXSS",
    "decoder": "Minxss",
    "normalizer": "Minxss"
  },
  {
    "norad_id": "43758",
    "name": "MinXSS 2",
    "decoder": "Minxss",
    "normalizer": "Minxss"
  },
  {
    "norad_id": "44045",
    "name": "MySat-1",
    "decoder": "Mysat",
    "normalizer": "Mysat"
  },
  {
    "norad_id": "43933",
    "name": "OrigamiSat-1",
    "decoder": "Origamisat1",
    "normalizer": "Origamisat1"
  },
  {
    "norad_id": "43814",
    "name": "PW-Sat2",
    "decoder": "Pwsat2",
    "normalizer": "Pwsat2"
  },
  {
    "norad_id": "42708",
    "name": "QBEE",
    "decoder": "Qbee",
    "normalizer": "Qbee"
  },
  {
    "norad_id": "43595",
    "name": "SiriusSat-1",
    "decoder": "Siriussat",
    "normalizer": "Siriussat"
  },
  {
    "norad_id": "43596",
    "name": "SiriusSat-2",
    "decoder": "Siriussat",
    "normalizer": "Siriussat"
  },
  {
    "norad_id": "42789",
    "name": "SKCUBE",
    "decoder": "Skcube",
    "normalizer": "Skcube"
  },
  {
    "norad_id": "39090",
    "name": "STRAND-1",
    "decoder": "Strand",
    "normalizer": "Strand"
  },
  {
    "norad_id": "40012",
    "name": "UNISAT-6",
    "decoder": "Us6",
    "normalizer": "Us6"
  },
  {
    "norad_id": "43880",
    "name": "UWE-4",
    "decoder": "Uwe4",
    "normalizer": "Uwe4"
  },
  {
    "norad_id": "45598",
    "name": "Quetzal-1",
    "decoder": "quetzal1",
    "normalizer": "Quetzal1"
  }
]
